{
  "tests": "./test/*_test.js",
  "timeout": 10000,
  "output": "./test/output",
  "helpers": {
    "Puppeteer": {
      "url": "http://localhost",
      "waitForNavigation": "domcontentloaded",
      "chrome": {
        "args": ["--no-sandbox"]
      }
    }
  },
  "include": {},
  "bootstrap": false,
  "mocha": {},
  "name": "gulp-firestarter"
}
